Date,Adj Close
2014-09-29,77.839996
2014-09-30,76.519997
2014-10-01,75.000000
2014-10-02,74.690002
2014-10-03,74.769997
2014-10-06,74.959999
2014-10-07,73.910004
2014-10-08,74.529999
2014-10-09,71.440002
2014-10-10,70.360001
2014-10-13,68.070000
2014-10-14,66.199997
2014-10-15,66.250000
2014-10-16,66.930000
2014-10-17,68.080002
2014-10-20,68.830002
2014-10-21,70.589996
2014-10-22,69.440002
2014-10-23,70.000000
2014-10-24,70.070000
2014-10-27,68.830002
2014-10-28,70.220001
2014-10-29,70.750000
2014-10-30,71.349998
2014-10-31,72.150002
2014-11-03,70.559998
2014-11-04,68.769997
2014-11-05,69.879997
2014-11-06,71.320000
2014-11-07,72.160004
2014-11-10,71.599998
2014-11-11,71.750000
2014-11-12,71.199997
2014-11-13,70.349998
2014-11-14,71.410004
2014-11-17,71.419998
2014-11-18,71.669998
2014-11-19,72.129997
2014-11-20,73.209999
2014-11-21,73.639999
2014-11-24,73.330002
2014-11-25,71.730003
2014-11-26,70.830002
2014-11-28,66.070000
2014-12-01,67.769997
2014-12-02,69.209999
2014-12-03,70.800003
2014-12-04,69.309998
2014-12-05,67.849998
2014-12-08,65.029999
2014-12-09,64.959999
2014-12-10,63.540001
2014-12-11,63.610001
2014-12-12,62.450001
2014-12-15,61.689999
2014-12-16,63.220001
2014-12-17,66.940002
2014-12-18,69.750000
2014-12-19,70.980003
2014-12-22,69.519997
2014-12-23,71.050003
2014-12-24,70.129997
2014-12-26,69.879997
2014-12-29,70.110001
2014-12-30,69.930000
2014-12-31,69.059998
2015-01-02,68.919998
2015-01-05,65.639999
2015-01-06,62.930000
2015-01-07,63.349998
2015-01-08,64.930000
2015-01-09,64.919998
2015-01-12,63.070000
2015-01-13,62.439999
2015-01-14,62.619999
2015-01-15,61.410000
2015-01-16,63.080002
2015-01-20,63.189999
2015-01-21,64.540001
2015-01-22,65.300003
2015-01-23,64.650002
2015-01-26,65.820000
2015-01-27,65.540001
2015-01-28,62.580002
2015-01-29,62.820000
2015-01-30,62.980000
2015-02-02,65.769997
2015-02-03,67.739998
2015-02-04,65.870003
2015-02-05,67.570000
2015-02-06,67.489998
2015-02-09,67.849998
2015-02-10,67.989998
2015-02-11,67.879997
2015-02-12,68.040001
2015-02-13,69.879997
2015-02-17,69.470001
2015-02-18,67.730003
2015-02-19,67.419998
2015-02-20,67.379997
2015-02-23,66.919998
2015-02-24,67.089996
2015-02-25,67.529999
2015-02-26,65.849998
2015-02-27,65.199997
2015-03-02,64.400002
2015-03-03,64.779999
2015-03-04,64.250000
2015-03-05,63.330002
2015-03-06,62.790001
2015-03-09,61.970001
2015-03-10,60.869999
2015-03-11,61.299999
2015-03-12,61.360001
2015-03-13,61.639999
2015-03-16,62.400002
2015-03-17,62.009998
2015-03-18,63.639999
2015-03-19,62.759998
2015-03-20,63.840000
2015-03-23,63.230000
2015-03-24,62.549999
2015-03-25,63.049999
2015-03-26,63.240002
2015-03-27,62.930000
2015-03-30,64.000000
2015-03-31,62.259998
2015-04-01,63.020000
2015-04-02,63.180000
2015-04-06,65.389999
2015-04-07,65.790001
2015-04-08,64.809998
2015-04-09,67.000000
2015-04-10,66.529999
2015-04-13,66.339996
2015-04-14,68.360001
2015-04-15,69.400002
2015-04-16,69.010002
2015-04-17,67.690002
2015-04-20,68.610001
2015-04-21,68.019997
2015-04-22,67.879997
2015-04-23,68.260002
2015-04-24,67.510002
2015-04-27,67.059998
2015-04-28,67.739998
2015-04-29,68.059998
2015-04-30,67.919998
2015-05-01,67.440002
2015-05-04,67.019997
2015-05-05,67.199997
2015-05-06,67.230003
2015-05-07,66.620003
2015-05-08,67.169998
2015-05-11,65.279999
2015-05-12,65.400002
2015-05-13,65.389999
2015-05-14,65.419998
2015-05-15,65.760002
2015-05-18,66.040001
2015-05-19,65.120003
2015-05-20,64.779999
2015-05-21,65.580002
2015-05-22,65.110001
2015-05-26,63.840000
2015-05-27,63.820000
2015-05-28,63.860001
2015-05-29,63.680000
2015-06-01,63.610001
2015-06-02,64.070000
2015-06-03,63.799999
2015-06-04,63.000000
2015-06-05,63.040001
2015-06-08,63.430000
2015-06-09,63.060001
2015-06-10,64.019997
2015-06-11,64.029999
2015-06-12,63.509998
2015-06-15,63.270000
2015-06-16,63.430000
2015-06-17,63.090000
2015-06-18,62.930000
2015-06-19,62.349998
2015-06-22,62.580002
2015-06-23,63.169998
2015-06-24,62.830002
2015-06-25,62.220001
2015-06-26,62.180000
2015-06-29,61.009998
2015-06-30,61.410000
2015-07-01,60.029999
2015-07-02,60.520000
2015-07-06,59.060001
2015-07-07,59.650002
2015-07-08,58.360001
2015-07-09,58.669998
2015-07-10,59.130001
2015-07-13,58.930000
2015-07-14,59.529999
2015-07-15,58.419998
2015-07-16,57.950001
2015-07-17,57.200001
2015-07-20,56.570000
2015-07-21,56.490002
2015-07-22,55.830002
2015-07-23,54.040001
2015-07-24,52.090000
2015-07-27,50.650002
2015-07-28,52.240002
2015-07-29,52.900002
2015-07-30,52.070000
2015-07-31,50.340000
2015-08-03,49.709999
2015-08-04,49.869999
2015-08-05,49.119999
2015-08-06,50.279999
2015-08-07,48.840000
2015-08-10,50.200001
2015-08-11,50.400002
2015-08-12,51.540001
2015-08-13,50.099998
2015-08-14,49.770000
2015-08-17,49.560001
2015-08-18,49.509998
2015-08-19,47.680000
2015-08-20,47.000000
2015-08-21,45.389999
2015-08-24,42.930000
2015-08-25,42.189999
2015-08-26,43.410000
2015-08-27,45.869999
2015-08-28,46.820000
2015-08-31,49.150002
2015-09-01,47.750000
2015-09-02,48.189999
2015-09-03,48.180000
2015-09-04,47.200001
2015-09-08,48.459999
2015-09-09,47.849998
2015-09-10,48.430000
2015-09-11,47.360001
2015-09-14,46.770000
2015-09-15,47.279999
2015-09-16,49.470001
2015-09-17,50.130001
2015-09-18,48.360001
2015-09-21,48.750000
2015-09-22,48.619999
2015-09-23,47.860001
2015-09-24,47.759998
2015-09-25,47.189999
2015-09-28,45.849998
2015-09-29,46.570000
2015-09-30,47.959999
2015-10-01,48.160000
2015-10-02,51.189999
2015-10-05,52.980000
2015-10-06,55.139999
2015-10-07,55.270000
2015-10-08,56.279999
2015-10-09,56.099998
2015-10-12,55.270000
2015-10-13,55.040001
2015-10-14,55.459999
2015-10-15,55.230000
2015-10-16,55.230000
2015-10-19,53.689999
2015-10-20,53.540001
2015-10-21,52.970001
2015-10-22,54.580002
2015-10-23,54.610001
2015-10-26,52.950001
2015-10-27,51.689999
2015-10-28,53.340000
2015-10-29,53.619999
2015-10-30,53.349998
2015-11-02,54.939999
2015-11-03,56.730000
2015-11-04,56.340000
2015-11-05,56.279999
2015-11-06,55.770000
2015-11-09,54.639999
2015-11-10,54.650002
2015-11-11,53.439999
2015-11-12,51.970001
2015-11-13,51.830002
2015-11-16,54.369999
2015-11-17,53.900002
2015-11-18,54.480000
2015-11-19,53.560001
2015-11-20,52.930000
2015-11-23,53.279999
2015-11-24,55.320000
2015-11-25,54.380001
2015-11-27,53.480000
2015-11-30,54.049999
2015-12-01,54.610001
2015-12-02,52.549999
2015-12-03,51.610001
2015-12-04,51.189999
2015-12-07,48.990002
2015-12-08,48.299999
2015-12-09,48.470001
2015-12-10,49.220001
2015-12-11,48.130001
2015-12-14,49.529999
2015-12-15,50.560001
2015-12-16,49.349998
2015-12-17,47.279999
2015-12-18,45.930000
2015-12-21,45.099998
2015-12-22,46.279999
2015-12-23,49.029999
2015-12-24,48.590000
2015-12-28,47.189999
2015-12-29,47.770000
2015-12-30,46.599998
2015-12-31,46.689999
2016-01-04,46.880001
2016-01-05,47.400002
2016-01-06,45.349998
2016-01-07,44.060001
2016-01-08,43.290001
2016-01-11,41.119999
2016-01-12,40.250000
2016-01-13,39.000000
2016-01-14,41.250000
2016-01-15,39.360001
2016-01-19,36.400002
2016-01-20,34.750000
2016-01-21,36.910000
2016-01-22,37.669998
2016-01-25,34.200001
2016-01-26,35.349998
2016-01-27,36.209999
2016-01-28,38.020000
2016-01-29,39.080002
2016-02-01,38.599998
2016-02-02,36.590000
2016-02-03,38.630001
2016-02-04,35.320000
2016-02-05,32.900002
2016-02-08,34.430000
2016-02-09,33.580002
2016-02-10,32.340000
2016-02-11,31.879999
2016-02-12,32.900002
2016-02-16,32.759998
2016-02-17,33.910000
2016-02-18,33.700001
2016-02-19,32.869999
2016-02-22,34.450001
2016-02-23,32.919998
2016-02-24,32.959999
2016-02-25,33.060001
2016-02-26,34.119999
2016-02-29,33.830002
2016-03-01,34.459999
2016-03-02,36.490002
2016-03-03,38.560001
2016-03-04,41.119999
2016-03-07,41.400002
2016-03-08,38.619999
2016-03-09,39.049999
2016-03-10,39.029999
2016-03-11,40.520000
2016-03-14,40.009998
2016-03-15,39.830002
2016-03-16,41.869999
2016-03-17,43.009998
2016-03-18,43.020000
2016-03-21,42.580002
2016-03-22,41.919998
2016-03-23,39.849998
2016-03-24,40.040001
2016-03-28,39.680000
2016-03-29,39.619999
2016-03-30,40.080002
2016-03-31,40.270000
2016-04-01,39.779999
2016-04-04,39.099998
2016-04-05,39.040001
2016-04-06,40.750000
2016-04-07,40.310001
2016-04-08,41.230000
2016-04-11,41.189999
2016-04-12,43.470001
2016-04-13,43.580002
2016-04-14,44.220001
2016-04-15,43.700001
2016-04-18,45.000000
2016-04-19,47.060001
2016-04-20,47.080002
2016-04-21,46.230000
2016-04-22,47.619999
2016-04-25,46.270000
2016-04-26,48.080002
2016-04-27,48.110001
2016-04-28,47.669998
2016-04-29,47.790001
2016-05-02,46.849998
2016-05-03,45.080002
2016-05-04,43.410000
2016-05-05,43.209999
2016-05-06,42.759998
2016-05-09,41.650002
2016-05-10,42.869999
2016-05-11,43.680000
2016-05-12,43.730000
2016-05-13,43.020000
2016-05-16,44.080002
2016-05-17,43.779999
2016-05-18,43.340000
2016-05-19,43.360001
2016-05-20,43.580002
2016-05-23,43.590000
2016-05-24,43.459999
2016-05-25,44.900002
2016-05-26,44.730000
2016-05-27,44.330002
2016-05-31,43.790001
2016-06-01,44.060001
2016-06-02,44.380001
2016-06-03,44.180000
2016-06-06,45.520000
2016-06-07,47.540001
2016-06-08,47.490002
2016-06-09,46.570000
2016-06-10,44.509998
2016-06-13,43.880001
2016-06-14,44.320000
2016-06-15,43.709999
2016-06-16,43.160000
2016-06-17,44.150002
2016-06-20,44.689999
2016-06-21,44.799999
2016-06-22,43.990002
2016-06-23,45.630001
2016-06-24,43.169998
2016-06-27,40.779999
2016-06-28,41.950001
2016-06-29,43.910000
2016-06-30,43.599998
2016-07-01,43.509998
2016-07-05,41.700001
2016-07-06,41.900002
2016-07-07,41.509998
2016-07-08,42.299999
2016-07-11,42.450001
2016-07-12,43.799999
2016-07-13,42.869999
2016-07-14,43.020000
2016-07-15,42.939999
2016-07-18,42.709999
2016-07-19,41.910000
2016-07-20,42.029999
2016-07-21,41.040001
2016-07-22,40.759998
2016-07-25,40.240002
2016-07-26,40.790001
2016-07-27,40.070000
2016-07-28,40.259998
2016-07-29,40.820000
2016-08-01,39.610001
2016-08-02,39.790001
2016-08-03,40.310001
2016-08-04,40.099998
2016-08-05,40.599998
2016-08-08,41.560001
2016-08-09,41.240002
2016-08-10,40.599998
2016-08-11,41.389999
2016-08-12,41.369999
2016-08-15,42.180000
2016-08-16,42.860001
2016-08-17,43.200001
2016-08-18,43.590000
2016-08-19,43.320000
2016-08-22,42.630001
2016-08-23,43.220001
2016-08-24,42.959999
2016-08-25,42.779999
2016-08-26,42.299999
2016-08-29,42.349998
2016-08-30,42.230000
2016-08-31,41.049999
2016-09-01,40.599998
2016-09-02,40.919998
2016-09-06,41.000000
2016-09-07,41.480000
2016-09-08,43.279999
2016-09-09,42.250000
2016-09-12,42.669998
2016-09-13,41.009998
2016-09-14,39.990002
2016-09-15,40.029999
2016-09-16,39.869999
2016-09-19,39.279999
2016-09-20,39.009998
2016-09-21,40.060001
2016-09-22,41.020000
2016-09-23,39.939999
2016-09-26,40.020000
2016-09-27,39.430000
2016-09-28,42.180000
2016-09-29,43.660000
2016-09-30,43.470001
2016-10-03,43.430000
2016-10-04,42.869999
2016-10-05,43.910000
2016-10-06,44.520000
2016-10-07,44.220001
2016-10-10,44.389999
2016-10-11,43.330002
2016-10-12,43.470001
2016-10-13,42.150002
2016-10-14,41.669998
2016-10-17,41.099998
2016-10-18,40.650002
2016-10-19,41.720001
2016-10-20,41.490002
2016-10-21,41.540001
2016-10-24,42.240002
2016-10-25,41.810001
2016-10-26,41.799999
2016-10-27,44.000000
2016-10-28,44.970001
2016-10-31,43.450001
2016-11-01,43.540001
2016-11-02,43.230000
2016-11-03,43.599998
2016-11-04,42.759998
2016-11-07,43.919998
2016-11-08,44.330002
2016-11-09,45.730000
2016-11-10,44.779999
2016-11-11,43.939999
2016-11-14,44.130001
2016-11-15,45.279999
2016-11-16,44.380001
2016-11-17,43.610001
2016-11-18,44.759998
2016-11-21,46.360001
2016-11-22,46.070000
2016-11-23,46.299999
2016-11-25,45.750000
2016-11-28,45.500000
2016-11-29,44.230000
2016-11-30,48.520000
2016-12-01,48.220001
2016-12-02,48.119999
2016-12-05,48.880001
2016-12-06,49.900002
2016-12-07,49.900002
2016-12-08,49.779999
2016-12-09,50.770000
2016-12-12,51.380001
2016-12-13,52.639999
2016-12-14,51.490002
2016-12-15,51.740002
2016-12-16,51.939999
2016-12-19,51.980000
2016-12-20,51.549999
2016-12-21,51.480000
2016-12-22,51.540001
2016-12-23,51.369999
2016-12-27,51.599998
2016-12-28,50.770000
2016-12-29,50.540001
2016-12-30,50.139999
