Date,Adj Close
2014-09-29,60.330002
2014-09-30,60.240002
2014-10-01,59.770000
2014-10-02,58.840000
2014-10-03,60.299999
2014-10-06,60.180000
2014-10-07,59.270000
2014-10-08,60.400002
2014-10-09,59.080002
2014-10-10,58.520000
2014-10-13,58.160000
2014-10-14,57.990002
2014-10-15,55.529999
2014-10-16,55.080002
2014-10-17,56.200001
2014-10-20,56.630001
2014-10-21,57.930000
2014-10-22,57.450001
2014-10-23,58.060001
2014-10-24,58.740002
2014-10-27,58.639999
2014-10-28,59.630001
2014-10-29,59.290001
2014-10-30,59.389999
2014-10-31,60.480000
2014-11-03,60.880001
2014-11-04,60.250000
2014-11-05,61.150002
2014-11-06,61.230000
2014-11-07,61.470001
2014-11-10,61.930000
2014-11-11,61.369999
2014-11-12,60.560001
2014-11-13,60.230000
2014-11-14,60.279999
2014-11-17,60.380001
2014-11-18,60.529999
2014-11-19,60.599998
2014-11-20,60.119999
2014-11-21,60.450001
2014-11-24,60.959999
2014-11-25,60.299999
2014-11-26,60.340000
2014-11-28,60.160000
2014-12-01,60.000000
2014-12-02,61.080002
2014-12-03,61.540001
2014-12-04,61.380001
2014-12-05,62.700001
2014-12-08,62.669998
2014-12-09,62.450001
2014-12-10,60.680000
2014-12-11,61.139999
2014-12-12,60.040001
2014-12-15,59.160000
2014-12-16,58.430000
2014-12-17,59.770000
2014-12-18,61.480000
2014-12-19,61.930000
2014-12-22,61.939999
2014-12-23,62.480000
2014-12-24,62.480000
2014-12-26,62.549999
2014-12-29,62.959999
2014-12-30,63.150002
2014-12-31,62.580002
2015-01-02,62.490002
2015-01-05,60.549999
2015-01-06,58.980000
2015-01-07,59.070000
2015-01-08,60.389999
2015-01-09,59.340000
2015-01-12,58.830002
2015-01-13,58.840000
2015-01-14,56.810001
2015-01-15,54.990002
2015-01-16,55.930000
2015-01-20,55.709999
2015-01-21,55.889999
2015-01-22,57.590000
2015-01-23,56.680000
2015-01-26,56.770000
2015-01-27,56.200001
2015-01-28,54.750000
2015-01-29,55.669998
2015-01-30,54.380001
2015-02-02,55.470001
2015-02-03,56.720001
2015-02-04,56.380001
2015-02-05,56.770000
2015-02-06,57.889999
2015-02-09,57.820000
2015-02-10,58.459999
2015-02-11,58.369999
2015-02-12,59.570000
2015-02-13,59.669998
2015-02-17,60.099998
2015-02-18,59.369999
2015-02-19,59.230000
2015-02-20,59.799999
2015-02-23,59.349998
2015-02-24,60.820000
2015-02-25,61.139999
2015-02-26,61.580002
2015-02-27,61.279999
2015-03-02,61.770000
2015-03-03,61.970001
2015-03-04,62.130001
2015-03-05,62.000000
2015-03-06,60.889999
2015-03-09,61.500000
2015-03-10,59.959999
2015-03-11,60.240002
2015-03-12,61.369999
2015-03-13,61.000000
2015-03-16,61.849998
2015-03-17,61.610001
2015-03-18,61.750000
2015-03-19,61.200001
2015-03-20,61.750000
2015-03-23,61.139999
2015-03-24,60.459999
2015-03-25,59.610001
2015-03-26,59.540001
2015-03-27,59.549999
2015-03-30,60.959999
2015-03-31,60.580002
2015-04-01,59.950001
2015-04-02,60.520000
2015-04-06,60.470001
2015-04-07,60.849998
2015-04-08,61.049999
2015-04-09,61.470001
2015-04-10,61.700001
2015-04-13,62.070000
2015-04-14,63.040001
2015-04-15,64.209999
2015-04-16,63.810001
2015-04-17,62.840000
2015-04-20,63.240002
2015-04-21,62.310001
2015-04-22,62.939999
2015-04-23,62.799999
2015-04-24,62.599998
2015-04-27,62.340000
2015-04-28,62.759998
2015-04-29,63.599998
2015-04-30,63.259998
2015-05-01,63.610001
2015-05-04,64.720001
2015-05-05,64.400002
2015-05-06,63.919998
2015-05-07,64.500000
2015-05-08,65.489998
2015-05-11,65.449997
2015-05-12,65.360001
2015-05-13,65.519997
2015-05-14,66.050003
2015-05-15,65.879997
2015-05-18,66.419998
2015-05-19,67.010002
2015-05-20,66.480003
2015-05-21,66.650002
2015-05-22,66.470001
2015-05-26,65.730003
2015-05-27,66.470001
2015-05-28,66.199997
2015-05-29,65.779999
2015-06-01,66.080002
2015-06-02,66.019997
2015-06-03,66.699997
2015-06-04,66.330002
2015-06-05,67.419998
2015-06-08,66.889999
2015-06-09,67.180000
2015-06-10,68.260002
2015-06-11,68.519997
2015-06-12,68.250000
2015-06-15,67.989998
2015-06-16,68.370003
2015-06-17,68.139999
2015-06-18,68.779999
2015-06-19,68.080002
2015-06-22,68.959999
2015-06-23,69.750000
2015-06-24,69.019997
2015-06-25,68.650002
2015-06-26,68.949997
2015-06-29,67.199997
2015-06-30,67.760002
2015-07-01,68.070000
2015-07-02,67.519997
2015-07-06,67.330002
2015-07-07,66.800003
2015-07-08,65.430000
2015-07-09,66.110001
2015-07-10,67.050003
2015-07-13,68.089996
2015-07-14,69.040001
2015-07-15,69.190002
2015-07-16,69.559998
2015-07-17,69.209999
2015-07-20,69.260002
2015-07-21,69.099998
2015-07-22,70.080002
2015-07-23,69.639999
2015-07-24,68.910004
2015-07-27,68.010002
2015-07-28,68.050003
2015-07-29,68.940002
2015-07-30,69.040001
2015-07-31,68.529999
2015-08-03,68.529999
2015-08-04,68.459999
2015-08-05,68.730003
2015-08-06,68.250000
2015-08-07,68.050003
2015-08-10,68.889999
2015-08-11,68.230003
2015-08-12,67.239998
2015-08-13,67.550003
2015-08-14,67.889999
2015-08-17,68.070000
2015-08-18,68.209999
2015-08-19,67.599998
2015-08-20,65.940002
2015-08-21,63.599998
2015-08-24,60.250000
2015-08-25,59.910000
2015-08-26,62.910000
2015-08-27,64.480003
2015-08-28,64.129997
2015-08-31,64.099998
2015-09-01,61.450001
2015-09-02,62.570000
2015-09-03,62.680000
2015-09-04,61.500000
2015-09-08,63.160000
2015-09-09,62.180000
2015-09-10,62.660000
2015-09-11,62.560001
2015-09-14,62.380001
2015-09-15,63.580002
2015-09-16,64.139999
2015-09-17,62.650002
2015-09-18,60.939999
2015-09-21,61.450001
2015-09-22,60.910000
2015-09-23,60.639999
2015-09-24,60.220001
2015-09-25,61.470001
2015-09-28,59.980000
2015-09-29,59.840000
2015-09-30,60.970001
2015-10-01,61.419998
2015-10-02,60.810001
2015-10-05,62.020000
2015-10-06,62.049999
2015-10-07,62.130001
2015-10-08,62.130001
2015-10-09,61.930000
2015-10-12,61.720001
2015-10-13,61.549999
2015-10-14,59.990002
2015-10-15,61.889999
2015-10-16,62.430000
2015-10-19,62.220001
2015-10-20,62.520000
2015-10-21,62.060001
2015-10-22,63.189999
2015-10-23,63.869999
2015-10-26,63.900002
2015-10-27,63.639999
2015-10-28,65.500000
2015-10-29,65.209999
2015-10-30,64.250000
2015-11-02,65.540001
2015-11-03,65.779999
2015-11-04,65.849998
2015-11-05,66.440002
2015-11-06,68.459999
2015-11-09,67.389999
2015-11-10,67.680000
2015-11-11,67.349998
2015-11-12,66.000000
2015-11-13,65.559998
2015-11-16,66.510002
2015-11-17,66.129997
2015-11-18,67.449997
2015-11-19,67.660004
2015-11-20,67.540001
2015-11-23,66.879997
2015-11-24,66.779999
2015-11-25,66.860001
2015-11-27,67.169998
2015-11-30,66.680000
2015-12-01,67.610001
2015-12-02,66.660004
2015-12-03,65.800003
2015-12-04,67.889999
2015-12-07,67.000000
2015-12-08,65.959999
2015-12-09,65.459999
2015-12-10,65.610001
2015-12-11,64.070000
2015-12-14,64.269997
2015-12-15,66.099998
2015-12-16,67.529999
2015-12-17,66.279999
2015-12-18,64.400002
2015-12-21,65.540001
2015-12-22,65.680000
2015-12-23,66.730003
2015-12-24,66.599998
2015-12-28,66.379997
2015-12-29,67.070000
2015-12-30,66.589996
2015-12-31,66.029999
2016-01-04,63.619999
2016-01-05,63.730000
2016-01-06,62.810001
2016-01-07,60.270000
2016-01-08,58.919998
2016-01-11,58.830002
2016-01-12,58.959999
2016-01-13,57.340000
2016-01-14,58.200001
2016-01-15,57.040001
2016-01-19,57.009998
2016-01-20,55.509998
2016-01-21,55.250000
2016-01-22,56.950001
2016-01-25,55.660000
2016-01-26,57.080002
2016-01-27,57.040001
2016-01-28,57.279999
2016-01-29,59.500000
2016-02-01,58.860001
2016-02-02,57.029999
2016-02-03,57.410000
2016-02-04,58.400002
2016-02-05,57.750000
2016-02-08,56.540001
2016-02-09,56.200001
2016-02-10,55.520000
2016-02-11,53.070000
2016-02-12,57.490002
2016-02-16,58.349998
2016-02-17,58.770000
2016-02-18,57.810001
2016-02-19,57.820000
2016-02-22,58.570000
2016-02-23,56.119999
2016-02-24,56.139999
2016-02-25,57.009998
2016-02-26,57.540001
2016-02-29,56.299999
2016-03-01,59.200001
2016-03-02,59.759998
2016-03-03,59.959999
2016-03-04,60.049999
2016-03-07,59.939999
2016-03-08,58.779999
2016-03-09,59.119999
2016-03-10,58.610001
2016-03-11,59.340000
2016-03-14,59.119999
2016-03-15,59.200001
2016-03-16,58.919998
2016-03-17,58.750000
2016-03-18,60.480000
2016-03-21,60.459999
2016-03-22,60.240002
2016-03-23,59.939999
2016-03-24,59.480000
2016-03-28,59.400002
2016-03-29,59.029999
2016-03-30,59.709999
2016-03-31,59.220001
2016-04-01,59.869999
2016-04-04,59.200001
2016-04-05,58.360001
2016-04-06,58.810001
2016-04-07,57.320000
2016-04-08,57.740002
2016-04-11,58.200001
2016-04-12,59.279999
2016-04-13,61.790001
2016-04-14,62.590000
2016-04-15,61.869999
2016-04-18,62.270000
2016-04-19,63.320000
2016-04-20,64.239998
2016-04-21,63.599998
2016-04-22,63.970001
2016-04-25,63.599998
2016-04-26,63.930000
2016-04-27,64.110001
2016-04-28,63.599998
2016-04-29,63.200001
2016-05-02,63.790001
2016-05-03,62.560001
2016-05-04,61.570000
2016-05-05,61.240002
2016-05-06,61.599998
2016-05-09,61.209999
2016-05-10,62.040001
2016-05-11,61.810001
2016-05-12,61.770000
2016-05-13,61.200001
2016-05-16,61.660000
2016-05-17,61.660000
2016-05-18,64.040001
2016-05-19,63.389999
2016-05-20,63.509998
2016-05-23,63.459999
2016-05-24,64.540001
2016-05-25,65.519997
2016-05-26,65.029999
2016-05-27,65.430000
2016-05-31,65.269997
2016-06-01,65.690002
2016-06-02,65.809998
2016-06-03,64.639999
2016-06-06,65.279999
2016-06-07,65.059998
2016-06-08,65.250000
2016-06-09,64.750000
2016-06-10,63.840000
2016-06-13,63.270000
2016-06-14,62.080002
2016-06-15,61.970001
2016-06-16,62.220001
2016-06-17,62.279999
2016-06-20,62.369999
2016-06-21,62.950001
2016-06-22,62.709999
2016-06-23,64.050003
2016-06-24,59.599998
2016-06-27,57.610001
2016-06-28,59.520000
2016-06-29,61.200001
2016-06-30,62.139999
2016-07-01,61.259998
2016-07-05,59.549999
2016-07-06,60.189999
2016-07-07,60.580002
2016-07-08,61.830002
2016-07-11,62.270000
2016-07-12,63.200001
2016-07-13,63.160000
2016-07-14,64.120003
2016-07-15,64.180000
2016-07-18,63.959999
2016-07-19,63.860001
2016-07-20,63.930000
2016-07-21,63.689999
2016-07-22,64.040001
2016-07-25,63.869999
2016-07-26,64.129997
2016-07-27,64.330002
2016-07-28,64.099998
2016-07-29,63.970001
2016-08-01,63.799999
2016-08-02,63.650002
2016-08-03,64.660004
2016-08-04,64.559998
2016-08-05,66.300003
2016-08-08,66.099998
2016-08-09,65.870003
2016-08-10,65.279999
2016-08-11,65.459999
2016-08-12,65.320000
2016-08-15,65.720001
2016-08-16,65.709999
2016-08-17,65.889999
2016-08-18,65.949997
2016-08-19,65.860001
2016-08-22,65.800003
2016-08-23,65.769997
2016-08-24,65.949997
2016-08-25,66.070000
2016-08-26,66.220001
2016-08-29,66.949997
2016-08-30,67.500000
2016-08-31,67.500000
2016-09-01,67.209999
2016-09-02,67.489998
2016-09-06,67.440002
2016-09-07,67.160004
2016-09-08,67.250000
2016-09-09,66.650002
2016-09-12,67.059998
2016-09-13,66.529999
2016-09-14,66.400002
2016-09-15,66.639999
2016-09-16,65.820000
2016-09-19,66.190002
2016-09-20,66.459999
2016-09-21,66.839996
2016-09-22,67.389999
2016-09-23,67.250000
2016-09-26,65.779999
2016-09-27,66.360001
2016-09-28,66.709999
2016-09-29,65.650002
2016-09-30,66.589996
2016-10-03,66.510002
2016-10-04,66.599998
2016-10-05,67.690002
2016-10-06,67.870003
2016-10-07,68.110001
2016-10-10,68.639999
2016-10-11,68.309998
2016-10-12,68.129997
2016-10-13,67.739998
2016-10-14,67.519997
2016-10-17,67.169998
2016-10-18,67.699997
2016-10-19,68.349998
2016-10-20,68.260002
2016-10-21,68.489998
2016-10-24,68.870003
2016-10-25,68.800003
2016-10-26,69.129997
2016-10-27,69.230003
2016-10-28,69.110001
2016-10-31,69.260002
2016-11-01,68.970001
2016-11-02,68.680000
2016-11-03,68.379997
2016-11-04,67.760002
2016-11-07,69.879997
2016-11-08,70.029999
2016-11-09,73.250000
2016-11-10,76.650002
2016-11-11,76.690002
2016-11-14,79.510002
2016-11-15,79.360001
2016-11-16,77.400002
2016-11-17,78.019997
2016-11-18,77.709999
2016-11-21,78.050003
2016-11-22,78.529999
2016-11-23,78.860001
2016-11-25,78.830002
2016-11-28,78.320000
2016-11-29,78.919998
2016-11-30,80.169998
2016-12-01,81.790001
2016-12-02,81.599998
2016-12-05,83.260002
2016-12-06,83.690002
2016-12-07,84.070000
2016-12-08,85.120003
2016-12-09,85.489998
2016-12-12,84.730003
2016-12-13,84.760002
2016-12-14,84.730003
2016-12-15,86.000000
2016-12-16,84.940002
2016-12-19,85.430000
2016-12-20,86.529999
2016-12-21,86.750000
2016-12-22,86.889999
2016-12-23,87.050003
2016-12-27,87.129997
2016-12-28,86.500000
2016-12-29,85.889999
2016-12-30,86.290001
