Date,Adj Close
2006-10-01,67.199997
2006-11-01,72.320000
2006-12-01,73.529999
2007-01-01,72.879997
2007-02-01,68.519997
2007-03-01,73.959999
2007-04-01,77.790001
2007-05-01,81.489998
2007-06-01,84.239998
2007-07-01,85.260002
2007-08-01,87.760002
2007-09-01,93.580002
2007-10-01,91.510002
2007-11-01,87.769997
2007-12-01,93.330002
2008-01-01,83.250000
2008-02-01,86.660004
2008-03-01,85.360001
2008-04-01,96.150002
2008-05-01,99.150002
2008-06-01,99.129997
2008-07-01,84.559998
2008-08-01,86.320000
2008-09-01,82.480003
2008-10-01,74.599998
2008-11-01,79.010002
2008-12-01,73.970001
2009-01-01,70.519997
2009-02-01,60.709999
2009-03-01,67.239998
2009-04-01,66.099998
2009-05-01,66.669998
2009-06-01,66.250000
2009-07-01,69.470001
2009-08-01,69.940002
2009-09-01,70.430000
2009-10-01,76.540001
2009-11-01,78.040001
2009-12-01,76.989998
2010-01-01,72.120003
2010-02-01,72.300003
2010-03-01,75.830002
2010-04-01,81.440002
2010-05-01,73.870003
2010-06-01,67.860001
2010-07-01,76.209999
2010-08-01,74.080002
2010-09-01,81.050003
2010-10-01,82.599998
2010-11-01,80.970001
2010-12-01,91.250000
2011-01-01,94.930000
2011-02-01,103.750000
2011-03-01,107.489998
2011-04-01,109.440002
2011-05-01,104.910004
2011-06-01,102.839996
2011-07-01,104.019997
2011-08-01,98.839996
2011-09-01,92.589996
2011-10-01,105.050003
2011-11-01,102.820000
2011-12-01,106.400002
2012-01-01,103.120003
2012-02-01,109.120003
2012-03-01,107.209999
2012-04-01,106.559998
2012-05-01,98.309998
2012-06-01,105.500000
2012-07-01,109.580002
2012-08-01,112.160004
2012-09-01,116.559998
2012-10-01,110.239998
2012-11-01,105.690002
2012-12-01,108.139999
2013-01-01,115.150002
2013-02-01,117.150002
2013-03-01,118.820000
2013-04-01,122.010002
2013-05-01,122.750000
2013-06-01,118.339996
2013-07-01,125.889999
2013-08-01,120.430000
2013-09-01,121.500000
2013-10-01,119.959999
2013-11-01,122.440002
2013-12-01,124.910004
2014-01-01,111.629997
2014-02-01,115.330002
2014-03-01,118.910004
2014-04-01,125.519997
2014-05-01,122.790001
2014-06-01,130.550003
2014-07-01,129.240005
2014-08-01,129.449997
2014-09-01,119.320000
2014-10-01,119.949997
2014-11-01,108.870003
2014-12-01,112.180000
2015-01-01,102.529999
2015-02-01,106.680000
2015-03-01,104.980003
2015-04-01,111.059998
2015-05-01,103.000000
2015-06-01,96.470001
2015-07-01,88.480003
2015-08-01,80.989998
2015-09-01,78.879997
2015-10-01,90.879997
2015-11-01,91.320000
2015-12-01,89.959999
2016-01-01,86.470001
2016-02-01,83.440002
2016-03-01,95.400002
2016-04-01,102.180000
2016-05-01,101.000000
2016-06-01,104.830002
2016-07-01,102.480003
2016-08-01,100.580002
2016-09-01,102.919998
2016-10-01,104.750000
2016-11-01,111.559998
2016-12-01,117.699997
